(1001)
(6MM FLAT END MILL Z0 SURFACE BOTTOM LEFT)
(T1  D=6. CR=0. - ZMIN=-15. - FLAT END MILL)
G90 G94 G91.1 G40 G49 G17
G21
G28 G91 Z0.
G90

(DRILL1)
M5
T1 M6
S16000 M3
G54
M8
G0 X128.337 Y28.162
G43 Z15. H1
Z5.
G98 G81 X128.337 Y28.162 Z-15. R5. F2400.
X10.837 Y220.662
X53.337 Y313.162
X244.439 Y488.093
X340.291 Y453.817
X439. Y366.566
X556.5 Y174.066
X514. Y81.566
X521.818 Y587.647
X309.18 Y736.988
X216.68 Y779.488
X307.972 Y849.515
X65.472 Y807.015
X24.18 Y661.988
X22.972 Y1049.515
X265.472 Y1092.015
G80
Z15.

(2D CONTOUR1)
G0 Z17.
X240.642 Y562.473
Z7.
G1 Z6. F2400.
Z-0.4
X240.65 Z-0.494 F9600.
X240.671 Y562.475 Z-0.585
X240.707 Y562.478 Z-0.672
X240.756 Y562.483 Z-0.753
X240.817 Y562.488 Z-0.824
X240.889 Y562.494 Z-0.885
X240.969 Y562.501 Z-0.935
X241.055 Y562.509 Z-0.971
X241.146 Y562.517 Z-0.993
X241.24 Y562.525 Z-1.
X241.838 Y562.577
G3 X242.383 Y563.227 I-0.052 J0.598
G1 X240.206 Y588.104
G2 X242.934 Y591.355 I2.989 J0.262
G1 X338.647 Y599.729
G2 X340.629 Y599.197 I0.261 J-2.989
G1 X340.655 Y599.188
X340.682 Y599.195
X340.701 Y599.214
X340.708 Y599.241
X340.699 Y599.267
G2 X340.167 Y601.249 I2.457 J1.721
G1 X361.951 Y850.234
G2 X364.679 Y852.962 I2.989 J-0.261
G1 X505.061 Y865.243
G2 X508.311 Y862.515 I0.261 J-2.989
G1 X534.457 Y563.657
G2 X531.729 Y560.407 I-2.989 J-0.261
G1 X521.083 Y559.476
G2 X518.894 Y560.166 I-0.261 J2.989
G1 X518.871 Y560.177
X518.845 Y560.175
X518.824 Y560.16
X518.813 Y560.137
X518.815 Y560.111
X518.83 Y560.09
G2 X519.89 Y558.053 I-1.929 J-2.298
G1 X526.923 Y477.673
G2 X524.195 Y474.423 I-2.989 J-0.262
G1 X443.815 Y467.391
G2 X441.626 Y468.081 I-0.261 J2.989
G1 X441.603 Y468.092
X441.577 Y468.09
X441.556 Y468.075
X441.545 Y468.052
X441.547 Y468.026
X441.562 Y468.005
G2 X442.622 Y465.968 I-1.929 J-2.298
G1 X443.553 Y455.322
G2 X440.825 Y452.072 I-2.989 J-0.261
G1 X241.587 Y434.641
G2 X238.337 Y437.369 I-0.261 J2.989
G1 X229.621 Y536.988
G2 X232.348 Y540.238 I2.989 J0.261
G1 X242.994 Y541.17
G2 X245.184 Y540.48 I0.262 J-2.989
G1 X245.207 Y540.469
X245.233 Y540.471
X245.254 Y540.486
X245.265 Y540.509
X245.263 Y540.535
X245.248 Y540.556
G2 X244.188 Y542.593 I1.929 J2.298
G1 X242.383 Y563.227
G3 X241.733 Y563.773 I-0.598 J-0.052
G1 X241.135 Y563.72
X241.042 Y563.712 Z-0.993
X240.951 Y563.704 Z-0.971
X240.864 Y563.697 Z-0.935
X240.784 Y563.69 Z-0.885
X240.713 Y563.683 Z-0.824
X240.652 Y563.678 Z-0.753
X240.603 Y563.674 Z-0.672
X240.567 Y563.671 Z-0.585
X240.545 Y563.669 Z-0.494
X240.538 Y563.668 Z-0.4
G0 Z7.
X240.642 Y562.473
G1 Z3. F2400.
Z-3.4
X240.65 Z-3.494 F9600.
X240.671 Y562.475 Z-3.585
X240.707 Y562.478 Z-3.672
X240.756 Y562.483 Z-3.753
X240.817 Y562.488 Z-3.824
X240.889 Y562.494 Z-3.885
X240.969 Y562.501 Z-3.935
X241.055 Y562.509 Z-3.971
X241.146 Y562.517 Z-3.993
X241.24 Y562.525 Z-4.
X241.838 Y562.577
G3 X242.383 Y563.227 I-0.052 J0.598
G1 X240.206 Y588.104
G2 X242.934 Y591.355 I2.989 J0.262
G1 X338.647 Y599.729
G2 X340.629 Y599.197 I0.261 J-2.989
G1 X340.655 Y599.188
X340.682 Y599.195
X340.701 Y599.214
X340.708 Y599.241
X340.699 Y599.267
G2 X340.167 Y601.249 I2.457 J1.721
G1 X361.951 Y850.234
G2 X364.679 Y852.962 I2.989 J-0.261
G1 X505.061 Y865.243
G2 X508.311 Y862.515 I0.261 J-2.989
G1 X534.457 Y563.657
G2 X531.729 Y560.407 I-2.989 J-0.261
G1 X521.083 Y559.476
G2 X518.894 Y560.166 I-0.261 J2.989
G1 X518.871 Y560.177
X518.845 Y560.175
X518.824 Y560.16
X518.813 Y560.137
X518.815 Y560.111
X518.83 Y560.09
G2 X519.89 Y558.053 I-1.929 J-2.298
G1 X526.923 Y477.673
G2 X524.195 Y474.423 I-2.989 J-0.262
G1 X443.815 Y467.391
G2 X441.626 Y468.081 I-0.261 J2.989
G1 X441.603 Y468.092
X441.577 Y468.09
X441.556 Y468.075
X441.545 Y468.052
X441.547 Y468.026
X441.562 Y468.005
G2 X442.622 Y465.968 I-1.929 J-2.298
G1 X443.553 Y455.322
G2 X440.825 Y452.072 I-2.989 J-0.261
G1 X241.587 Y434.641
G2 X238.337 Y437.369 I-0.261 J2.989
G1 X229.621 Y536.988
G2 X232.348 Y540.238 I2.989 J0.261
G1 X242.994 Y541.17
G2 X245.184 Y540.48 I0.262 J-2.989
G1 X245.207 Y540.469
X245.233 Y540.471
X245.254 Y540.486
X245.265 Y540.509
X245.263 Y540.535
X245.248 Y540.556
G2 X244.188 Y542.593 I1.929 J2.298
G1 X242.383 Y563.227
G3 X241.733 Y563.773 I-0.598 J-0.052
G1 X241.135 Y563.72
X241.042 Y563.712 Z-3.993
X240.951 Y563.704 Z-3.971
X240.864 Y563.697 Z-3.935
X240.784 Y563.69 Z-3.885
X240.713 Y563.683 Z-3.824
X240.652 Y563.678 Z-3.753
X240.603 Y563.674 Z-3.672
X240.567 Y563.671 Z-3.585
X240.545 Y563.669 Z-3.494
X240.538 Y563.668 Z-3.4
G0 Z7.
X240.642 Y562.473
G1 Z0. F2400.
Z-6.4
X240.65 Z-6.494 F9600.
X240.671 Y562.475 Z-6.585
X240.707 Y562.478 Z-6.672
X240.756 Y562.483 Z-6.753
X240.817 Y562.488 Z-6.824
X240.889 Y562.494 Z-6.885
X240.969 Y562.501 Z-6.935
X241.055 Y562.509 Z-6.971
X241.146 Y562.517 Z-6.993
X241.24 Y562.525 Z-7.
X241.838 Y562.577
G3 X242.383 Y563.227 I-0.052 J0.598
G1 X240.206 Y588.104
G2 X242.934 Y591.355 I2.989 J0.262
G1 X338.647 Y599.729
G2 X340.629 Y599.197 I0.261 J-2.989
G1 X340.655 Y599.188
X340.682 Y599.195
X340.701 Y599.214
X340.708 Y599.241
X340.699 Y599.267
G2 X340.167 Y601.249 I2.457 J1.721
G1 X361.951 Y850.234
G2 X364.679 Y852.962 I2.989 J-0.261
G1 X505.061 Y865.243
G2 X508.311 Y862.515 I0.261 J-2.989
G1 X534.457 Y563.657
G2 X531.729 Y560.407 I-2.989 J-0.261
G1 X521.083 Y559.476
G2 X518.894 Y560.166 I-0.261 J2.989
G1 X518.871 Y560.177
X518.845 Y560.175
X518.824 Y560.16
X518.813 Y560.137
X518.815 Y560.111
X518.83 Y560.09
G2 X519.89 Y558.053 I-1.929 J-2.298
G1 X526.923 Y477.673
G2 X524.195 Y474.423 I-2.989 J-0.262
G1 X443.815 Y467.391
G2 X441.626 Y468.081 I-0.261 J2.989
G1 X441.603 Y468.092
X441.577 Y468.09
X441.556 Y468.075
X441.545 Y468.052
X441.547 Y468.026
X441.562 Y468.005
G2 X442.622 Y465.968 I-1.929 J-2.298
G1 X443.553 Y455.322
G2 X440.825 Y452.072 I-2.989 J-0.261
G1 X241.587 Y434.641
G2 X238.337 Y437.369 I-0.261 J2.989
G1 X229.621 Y536.988
G2 X232.348 Y540.238 I2.989 J0.261
G1 X242.994 Y541.17
G2 X245.184 Y540.48 I0.262 J-2.989
G1 X245.207 Y540.469
X245.233 Y540.471
X245.254 Y540.486
X245.265 Y540.509
X245.263 Y540.535
X245.248 Y540.556
G2 X244.188 Y542.593 I1.929 J2.298
G1 X242.383 Y563.227
G3 X241.733 Y563.773 I-0.598 J-0.052
G1 X241.135 Y563.72
X241.042 Y563.712 Z-6.993
X240.951 Y563.704 Z-6.971
X240.864 Y563.697 Z-6.935
X240.784 Y563.69 Z-6.885
X240.713 Y563.683 Z-6.824
X240.652 Y563.678 Z-6.753
X240.603 Y563.674 Z-6.672
X240.567 Y563.671 Z-6.585
X240.545 Y563.669 Z-6.494
X240.538 Y563.668 Z-6.4
G0 Z7.
X240.642 Y562.473
G1 Z-3. F2400.
Z-9.4
X240.65 Z-9.494 F9600.
X240.671 Y562.475 Z-9.585
X240.707 Y562.478 Z-9.672
X240.756 Y562.483 Z-9.753
X240.817 Y562.488 Z-9.824
X240.889 Y562.494 Z-9.885
X240.969 Y562.501 Z-9.935
X241.055 Y562.509 Z-9.971
X241.146 Y562.517 Z-9.993
X241.24 Y562.525 Z-10.
X241.838 Y562.577
G3 X242.383 Y563.227 I-0.052 J0.598
G1 X240.206 Y588.104
G2 X242.934 Y591.355 I2.989 J0.262
G1 X338.647 Y599.729
G2 X340.629 Y599.197 I0.261 J-2.989
G1 X340.655 Y599.188
X340.682 Y599.195
X340.701 Y599.214
X340.708 Y599.241
X340.699 Y599.267
G2 X340.167 Y601.249 I2.457 J1.721
G1 X361.951 Y850.234
G2 X364.679 Y852.962 I2.989 J-0.261
G1 X505.061 Y865.243
G2 X508.311 Y862.515 I0.261 J-2.989
G1 X534.457 Y563.657
G2 X531.729 Y560.407 I-2.989 J-0.261
G1 X521.083 Y559.476
G2 X518.894 Y560.166 I-0.261 J2.989
G1 X518.871 Y560.177
X518.845 Y560.175
X518.824 Y560.16
X518.813 Y560.137
X518.815 Y560.111
X518.83 Y560.09
G2 X519.89 Y558.053 I-1.929 J-2.298
G1 X526.923 Y477.673
G2 X524.195 Y474.423 I-2.989 J-0.262
G1 X443.815 Y467.391
G2 X441.626 Y468.081 I-0.261 J2.989
G1 X441.603 Y468.092
X441.577 Y468.09
X441.556 Y468.075
X441.545 Y468.052
X441.547 Y468.026
X441.562 Y468.005
G2 X442.622 Y465.968 I-1.929 J-2.298
G1 X443.553 Y455.322
G2 X440.825 Y452.072 I-2.989 J-0.261
G1 X241.587 Y434.641
G2 X238.337 Y437.369 I-0.261 J2.989
G1 X229.621 Y536.988
G2 X232.348 Y540.238 I2.989 J0.261
G1 X242.994 Y541.17
G2 X245.184 Y540.48 I0.262 J-2.989
G1 X245.207 Y540.469
X245.233 Y540.471
X245.254 Y540.486
X245.265 Y540.509
X245.263 Y540.535
X245.248 Y540.556
G2 X244.188 Y542.593 I1.929 J2.298
G1 X242.383 Y563.227
G3 X241.733 Y563.773 I-0.598 J-0.052
G1 X241.135 Y563.72
X241.042 Y563.712 Z-9.993
X240.951 Y563.704 Z-9.971
X240.864 Y563.697 Z-9.935
X240.784 Y563.69 Z-9.885
X240.713 Y563.683 Z-9.824
X240.652 Y563.678 Z-9.753
X240.603 Y563.674 Z-9.672
X240.567 Y563.671 Z-9.585
X240.545 Y563.669 Z-9.494
X240.538 Y563.668 Z-9.4
G0 Z7.
X240.642 Y562.473
G1 Z-6. F2400.
Z-12.4
X240.65 Z-12.494 F9600.
X240.671 Y562.475 Z-12.585
X240.707 Y562.478 Z-12.672
X240.756 Y562.483 Z-12.753
X240.817 Y562.488 Z-12.824
X240.889 Y562.494 Z-12.885
X240.969 Y562.501 Z-12.935
X241.055 Y562.509 Z-12.971
X241.146 Y562.517 Z-12.993
X241.24 Y562.525 Z-13.
X241.838 Y562.577
G3 X242.383 Y563.227 I-0.052 J0.598
G1 X240.206 Y588.104
G2 X242.934 Y591.355 I2.989 J0.262
G1 X284.813 Y595.019
Z-12.
X296.768 Y596.065
Z-13. F2400.
X338.647 Y599.729 F9600.
G2 X340.629 Y599.197 I0.261 J-2.989
G1 X340.655 Y599.188
X340.682 Y599.195
X340.701 Y599.214
X340.708 Y599.241
X340.699 Y599.267
G2 X340.167 Y601.249 I2.457 J1.721
G1 X345.09 Y657.518
Z-12.
X346.136 Y669.473
Z-13. F2400.
X355.982 Y782.01 F9600.
Z-12.
X357.028 Y793.965
Z-13. F2400.
X361.951 Y850.234 F9600.
G2 X364.679 Y852.962 I2.989 J-0.261
G1 X428.892 Y858.579
Z-12.
X440.847 Y859.625
Z-13. F2400.
X505.061 Y865.243 F9600.
G2 X508.311 Y862.515 I0.261 J-2.989
G1 X512.145 Y818.684
Z-12.
X513.191 Y806.729
Z-13. F2400.
X520.861 Y719.064 F9600.
Z-12.
X521.906 Y707.109
Z-13. F2400.
X529.576 Y619.445 F9600.
Z-12.
X530.622 Y607.49
Z-13. F2400.
X534.457 Y563.657 F9600.
G2 X531.729 Y560.407 I-2.989 J-0.261
G1 X521.083 Y559.476
G2 X518.894 Y560.166 I-0.261 J2.989
G1 X518.871 Y560.177
X518.845 Y560.175
X518.824 Y560.16
X518.813 Y560.137
X518.815 Y560.111
X518.83 Y560.09
G2 X519.89 Y558.053 I-1.929 J-2.298
G1 X526.923 Y477.673
G2 X524.195 Y474.423 I-2.989 J-0.262
G1 X443.815 Y467.391
G2 X441.626 Y468.081 I-0.261 J2.989
G1 X441.603 Y468.092
X441.577 Y468.09
X441.556 Y468.075
X441.545 Y468.052
X441.547 Y468.026
X441.562 Y468.005
G2 X442.622 Y465.968 I-1.929 J-2.298
G1 X443.553 Y455.322
G2 X440.825 Y452.072 I-2.989 J-0.261
G1 X396.994 Y448.238
Z-12.
X385.039 Y447.192
Z-13. F2400.
X297.374 Y439.522 F9600.
Z-12.
X285.419 Y438.476
Z-13. F2400.
X241.587 Y434.641 F9600.
G2 X238.337 Y437.369 I-0.261 J2.989
G1 X234.502 Y481.201
Z-12.
X233.456 Y493.156
Z-13. F2400.
X229.621 Y536.988 F9600.
G2 X232.348 Y540.238 I2.989 J0.261
G1 X242.994 Y541.17
G2 X245.184 Y540.48 I0.262 J-2.989
G1 X245.207 Y540.469
X245.233 Y540.471
X245.254 Y540.486
X245.265 Y540.509
X245.263 Y540.535
X245.248 Y540.556
G2 X244.188 Y542.593 I1.929 J2.298
G1 X242.383 Y563.227
G3 X241.733 Y563.773 I-0.598 J-0.052
G1 X241.135 Y563.72
X241.042 Y563.712 Z-12.993
X240.951 Y563.704 Z-12.971
X240.864 Y563.697 Z-12.935
X240.784 Y563.69 Z-12.885
X240.713 Y563.683 Z-12.824
X240.652 Y563.678 Z-12.753
X240.603 Y563.674 Z-12.672
X240.567 Y563.671 Z-12.585
X240.545 Y563.669 Z-12.494
X240.538 Y563.668 Z-12.4
G0 Z7.
X240.642 Y562.473
G1 Z-9. F2400.
Z-14.4
X240.65 Z-14.494 F9600.
X240.671 Y562.475 Z-14.585
X240.707 Y562.478 Z-14.672
X240.756 Y562.483 Z-14.753
X240.817 Y562.488 Z-14.824
X240.889 Y562.494 Z-14.885
X240.969 Y562.501 Z-14.935
X241.055 Y562.509 Z-14.971
X241.146 Y562.517 Z-14.993
X241.24 Y562.525 Z-15.
X241.838 Y562.577
G3 X242.383 Y563.227 I-0.052 J0.598
G1 X240.206 Y588.104
G2 X242.934 Y591.355 I2.989 J0.262
G1 X284.813 Y595.019
Z-12.
X296.768 Y596.065
Z-15. F2400.
X338.647 Y599.729 F9600.
G2 X340.629 Y599.197 I0.261 J-2.989
G1 X340.655 Y599.188
X340.682 Y599.195
X340.701 Y599.214
X340.708 Y599.241
X340.699 Y599.267
G2 X340.167 Y601.249 I2.457 J1.721
G1 X345.09 Y657.518
Z-12.
X346.136 Y669.473
Z-15. F2400.
X355.982 Y782.01 F9600.
Z-12.
X357.028 Y793.965
Z-15. F2400.
X361.951 Y850.234 F9600.
G2 X364.679 Y852.962 I2.989 J-0.261
G1 X428.892 Y858.579
Z-12.
X440.847 Y859.625
Z-15. F2400.
X505.061 Y865.243 F9600.
G2 X508.311 Y862.515 I0.261 J-2.989
G1 X512.145 Y818.684
Z-12.
X513.191 Y806.729
Z-15. F2400.
X520.861 Y719.064 F9600.
Z-12.
X521.906 Y707.109
Z-15. F2400.
X529.576 Y619.445 F9600.
Z-12.
X530.622 Y607.49
Z-15. F2400.
X534.457 Y563.657 F9600.
G2 X531.729 Y560.407 I-2.989 J-0.261
G1 X521.083 Y559.476
G2 X518.894 Y560.166 I-0.261 J2.989
G1 X518.871 Y560.177
X518.845 Y560.175
X518.824 Y560.16
X518.813 Y560.137
X518.815 Y560.111
X518.83 Y560.09
G2 X519.89 Y558.053 I-1.929 J-2.298
G1 X526.923 Y477.673
G2 X524.195 Y474.423 I-2.989 J-0.262
G1 X443.815 Y467.391
G2 X441.626 Y468.081 I-0.261 J2.989
G1 X441.603 Y468.092
X441.577 Y468.09
X441.556 Y468.075
X441.545 Y468.052
X441.547 Y468.026
X441.562 Y468.005
G2 X442.622 Y465.968 I-1.929 J-2.298
G1 X443.553 Y455.322
G2 X440.825 Y452.072 I-2.989 J-0.261
G1 X396.994 Y448.238
Z-12.
X385.039 Y447.192
Z-15. F2400.
X297.374 Y439.522 F9600.
Z-12.
X285.419 Y438.476
Z-15. F2400.
X241.587 Y434.641 F9600.
G2 X238.337 Y437.369 I-0.261 J2.989
G1 X234.502 Y481.201
Z-12.
X233.456 Y493.156
Z-15. F2400.
X229.621 Y536.988 F9600.
G2 X232.348 Y540.238 I2.989 J0.261
G1 X242.994 Y541.17
G2 X245.184 Y540.48 I0.262 J-2.989
G1 X245.207 Y540.469
X245.233 Y540.471
X245.254 Y540.486
X245.265 Y540.509
X245.263 Y540.535
X245.248 Y540.556
G2 X244.188 Y542.593 I1.929 J2.298
G1 X242.383 Y563.227
G3 X241.733 Y563.773 I-0.598 J-0.052
G1 X241.135 Y563.72
X241.042 Y563.712 Z-14.993
X240.951 Y563.704 Z-14.971
X240.864 Y563.697 Z-14.935
X240.784 Y563.69 Z-14.885
X240.713 Y563.683 Z-14.824
X240.652 Y563.678 Z-14.753
X240.603 Y563.674 Z-14.672
X240.567 Y563.671 Z-14.585
X240.545 Y563.669 Z-14.494
X240.538 Y563.668 Z-14.4
G0 Z7.
X193.984 Y565.7
G1 Z6. F2400.
Z-0.4
X193.977 Y565.702 Z-0.494 F9600.
X193.955 Y565.706 Z-0.585
X193.92 Y565.712 Z-0.672
X193.871 Y565.72 Z-0.753
X193.811 Y565.731 Z-0.824
X193.74 Y565.743 Z-0.885
X193.661 Y565.757 Z-0.935
X193.576 Y565.772 Z-0.971
X193.485 Y565.788 Z-0.993
X193.393 Y565.805 Z-1.
X192.802 Y565.909
G3 X192.107 Y565.422 I-0.104 J-0.591
G1 X160.552 Y386.467
G2 X157.598 Y383.988 I-2.954 J0.521
G1 X16.68
G2 X13.68 Y386.988 I0. J3.
G1 Y686.988
G2 X16.68 Y689.988 I3. J0.
G1 X27.367
G2 X29.488 Y689.109 I0. J-3.
G1 X29.51 Y689.096
X29.536
X29.559 Y689.109
X29.572 Y689.132
Y689.158
X29.559 Y689.181
G2 X28.68 Y691.302 I2.121 J2.121
G1 Y771.988
G2 X31.68 Y774.988 I3. J0.
G1 X112.367
G2 X114.488 Y774.11 I0. J-3.
G1 X114.51 Y774.097
X114.536
X114.559 Y774.11
X114.572 Y774.132
Y774.158
X114.559 Y774.181
G2 X113.68 Y776.302 I2.121 J2.121
G1 Y786.988
G2 X116.68 Y789.988 I3. J0.
G1 X316.68
G2 X319.68 Y786.988 I0. J-3.
G1 Y686.988
G2 X316.68 Y683.988 I-3. J0.
G1 X305.993
G2 X303.872 Y684.866 I0. J3.
G1 X303.85 Y684.879
X303.824
X303.802 Y684.866
X303.789 Y684.844
Y684.818
X303.802 Y684.796
G2 X304.68 Y682.675 I-2.122 J-2.121
G1 Y636.988
G2 X301.68 Y633.988 I-3. J0.
G1 X205.601
G2 X203.672 Y634.69 I0. J3.
G1 X203.647 Y634.701
X203.62 Y634.698
X203.599 Y634.68
X203.59 Y634.654
X203.597 Y634.627
G2 X203.953 Y632.606 I-2.598 J-1.5
G1 X192.107 Y565.422
G3 X192.594 Y564.727 I0.591 J-0.104
G1 X193.185 Y564.623
X193.277 Y564.607 Z-0.993
X193.367 Y564.591 Z-0.971
X193.453 Y564.576 Z-0.935
X193.532 Y564.562 Z-0.885
X193.602 Y564.549 Z-0.824
X193.663 Y564.539 Z-0.753
X193.711 Y564.53 Z-0.672
X193.747 Y564.524 Z-0.585
X193.768 Y564.52 Z-0.494
X193.776 Y564.519 Z-0.4
G0 Z7.
X159.2 Y349.104
G1 Z6. F2400.
Z-0.4
G18 G2 X159.8 Z-1. I0.6 K0. F9600.
G1 X160.4
G17 G3 X161. Y349.704 I0. J0.6
G1 Y374.066
G2 X164. Y377.066 I3. J0.
G1 X464.
G2 X467. Y374.066 I0. J-3.
G1 Y363.379
G2 X466.121 Y361.257 I-3. J0.
G1 X466.108 Y361.235
Y361.209
X466.121 Y361.187
X466.143 Y361.174
X466.169
X466.191 Y361.187
G2 X468.313 Y362.066 I2.122 J-2.121
G1 X549.
G2 X552. Y359.066 I0. J-3.
G1 Y278.379
G2 X551.121 Y276.257 I-3. J0.
G1 X551.108 Y276.235
Y276.209
X551.121 Y276.187
X551.143 Y276.174
X551.169
X551.191 Y276.187
G2 X553.313 Y277.066 I2.122 J-2.121
G1 X564.
G2 X567. Y274.066 I0. J-3.
G1 Y74.066
G2 X564. Y71.066 I-3. J0.
G1 X464.
G2 X461. Y74.066 I0. J3.
G1 Y84.753
G2 X461.878 Y86.874 I3. J0.
G1 X461.891 Y86.896
Y86.922
X461.878 Y86.945
X461.856 Y86.958
X461.83
X461.807 Y86.945
G2 X459.686 Y86.066 I-2.121 J2.121
G1 X414.
G2 X411. Y89.066 I0. J3.
G1 Y185.145
G2 X411.701 Y187.073 I3. J0.
G1 X411.713 Y187.098
X411.709 Y187.126
X411.691 Y187.147
X411.665 Y187.155
X411.638 Y187.149
G2 X409.617 Y186.793 I-1.5 J2.598
G1 X163.479 Y230.194
G2 X161. Y233.148 I0.521 J2.954
G1 Y349.704
G3 X160.4 Y350.304 I-0.6 J0.
G1 X159.8
G18 G3 X159.2 Z-0.4 I0. K0.6
G0 Z7.
X105.88 Y324.777
G1 Z6. F2400.
Z-0.4
X105.875 Y324.771 Z-0.494 F9600.
X105.861 Y324.754 Z-0.585
X105.839 Y324.726 Z-0.672
X105.808 Y324.688 Z-0.753
X105.769 Y324.64 Z-0.824
X105.724 Y324.585 Z-0.885
X105.674 Y324.522 Z-0.935
X105.62 Y324.454 Z-0.971
X105.562 Y324.383 Z-0.993
X105.503 Y324.31 Z-1.
X105.127 Y323.842
G17 G3 X105.218 Y322.999 I0.467 J-0.376
G2 X106.337 Y320.662 I-1.881 J-2.337
G1 Y309.975
G2 X105.459 Y307.854 I-3. J0.
G1 X105.446 Y307.832
Y307.806
X105.459 Y307.784
X105.481 Y307.771
X105.507
X105.529 Y307.784
G2 X107.65 Y308.662 I2.121 J-2.122
G1 X153.337
G2 X156.337 Y305.662 I0. J-3.
G1 Y209.583
G2 X155.636 Y207.655 I-3. J0.
G1 X155.624 Y207.63
X155.628 Y207.602
X155.646 Y207.581
X155.672 Y207.573
X155.699 Y207.579
G2 X157.72 Y207.935 I1.5 J-2.598
G1 X403.858 Y164.534
G2 X406.337 Y161.58 I-0.521 J-2.954
G1 Y20.662
G2 X403.337 Y17.662 I-3. J0.
G1 X103.337
G2 X100.337 Y20.662 I0. J3.
G1 Y31.349
G2 X101.215 Y33.47 I3. J0.
G1 X101.228 Y33.492
Y33.518
X101.215 Y33.54
X101.193 Y33.553
X101.167
X101.145 Y33.54
G2 X99.024 Y32.662 I-2.121 J2.122
G1 X18.337
G2 X15.337 Y35.662 I0. J3.
G1 Y116.349
G2 X16.215 Y118.47 I3. J0.
G1 X16.228 Y118.492
Y118.518
X16.215 Y118.54
X16.193 Y118.553
X16.167
X16.145 Y118.54
G2 X14.024 Y117.662 I-2.121 J2.122
G1 X3.337
G2 X0.337 Y120.662 I0. J3.
G1 Y320.662
G2 X3.337 Y323.662 I3. J0.
G1 X103.337
G2 X105.218 Y322.999 I0. J-3.
G3 X106.062 Y323.09 I0.376 J0.467
G1 X106.438 Y323.557
X106.497 Y323.631 Z-0.993
X106.554 Y323.702 Z-0.971
X106.609 Y323.77 Z-0.935
X106.659 Y323.832 Z-0.885
X106.704 Y323.888 Z-0.824
X106.742 Y323.936 Z-0.753
X106.773 Y323.974 Z-0.672
X106.796 Y324.002 Z-0.585
X106.81 Y324.019 Z-0.494
X106.814 Y324.025 Z-0.4
G0 Z7.
X105.88 Y324.777
G1 Z3. F2400.
Z-3.4
X105.875 Y324.771 Z-3.494 F9600.
X105.861 Y324.754 Z-3.585
X105.839 Y324.726 Z-3.672
X105.808 Y324.688 Z-3.753
X105.769 Y324.64 Z-3.824
X105.724 Y324.585 Z-3.885
X105.674 Y324.522 Z-3.935
X105.62 Y324.454 Z-3.971
X105.562 Y324.383 Z-3.993
X105.503 Y324.31 Z-4.
X105.127 Y323.842
G3 X105.218 Y322.999 I0.467 J-0.376
G2 X106.337 Y320.662 I-1.881 J-2.337
G1 Y309.975
G2 X105.459 Y307.854 I-3. J0.
G1 X105.446 Y307.832
Y307.806
X105.459 Y307.784
X105.481 Y307.771
X105.507
X105.529 Y307.784
G2 X107.65 Y308.662 I2.121 J-2.122
G1 X153.337
G2 X156.337 Y305.662 I0. J-3.
G1 Y209.583
G2 X155.636 Y207.655 I-3. J0.
G1 X155.624 Y207.63
X155.628 Y207.602
X155.646 Y207.581
X155.672 Y207.573
X155.699 Y207.579
G2 X157.72 Y207.935 I1.5 J-2.598
G1 X403.858 Y164.534
G2 X406.337 Y161.58 I-0.521 J-2.954
G1 Y20.662
G2 X403.337 Y17.662 I-3. J0.
G1 X103.337
G2 X100.337 Y20.662 I0. J3.
G1 Y31.349
G2 X101.215 Y33.47 I3. J0.
G1 X101.228 Y33.492
Y33.518
X101.215 Y33.54
X101.193 Y33.553
X101.167
X101.145 Y33.54
G2 X99.024 Y32.662 I-2.121 J2.122
G1 X18.337
G2 X15.337 Y35.662 I0. J3.
G1 Y116.349
G2 X16.215 Y118.47 I3. J0.
G1 X16.228 Y118.492
Y118.518
X16.215 Y118.54
X16.193 Y118.553
X16.167
X16.145 Y118.54
G2 X14.024 Y117.662 I-2.121 J2.122
G1 X3.337
G2 X0.337 Y120.662 I0. J3.
G1 Y320.662
G2 X3.337 Y323.662 I3. J0.
G1 X103.337
G2 X105.218 Y322.999 I0. J-3.
G3 X106.062 Y323.09 I0.376 J0.467
G1 X106.438 Y323.557
X106.497 Y323.631 Z-3.993
X106.554 Y323.702 Z-3.971
X106.609 Y323.77 Z-3.935
X106.659 Y323.832 Z-3.885
X106.704 Y323.888 Z-3.824
X106.742 Y323.936 Z-3.753
X106.773 Y323.974 Z-3.672
X106.796 Y324.002 Z-3.585
X106.81 Y324.019 Z-3.494
X106.814 Y324.025 Z-3.4
G0 Z7.
X159.2 Y349.104
G1 Z3. F2400.
Z-3.4
G18 G2 X159.8 Z-4. I0.6 K0. F9600.
G1 X160.4
G17 G3 X161. Y349.704 I0. J0.6
G1 Y374.066
G2 X164. Y377.066 I3. J0.
G1 X464.
G2 X467. Y374.066 I0. J-3.
G1 Y363.379
G2 X466.121 Y361.257 I-3. J0.
G1 X466.108 Y361.235
Y361.209
X466.121 Y361.187
X466.143 Y361.174
X466.169
X466.191 Y361.187
G2 X468.313 Y362.066 I2.122 J-2.121
G1 X549.
G2 X552. Y359.066 I0. J-3.
G1 Y278.379
G2 X551.121 Y276.257 I-3. J0.
G1 X551.108 Y276.235
Y276.209
X551.121 Y276.187
X551.143 Y276.174
X551.169
X551.191 Y276.187
G2 X553.313 Y277.066 I2.122 J-2.121
G1 X564.
G2 X567. Y274.066 I0. J-3.
G1 Y74.066
G2 X564. Y71.066 I-3. J0.
G1 X464.
G2 X461. Y74.066 I0. J3.
G1 Y84.753
G2 X461.878 Y86.874 I3. J0.
G1 X461.891 Y86.896
Y86.922
X461.878 Y86.945
X461.856 Y86.958
X461.83
X461.807 Y86.945
G2 X459.686 Y86.066 I-2.121 J2.121
G1 X414.
G2 X411. Y89.066 I0. J3.
G1 Y185.145
G2 X411.701 Y187.073 I3. J0.
G1 X411.713 Y187.098
X411.709 Y187.126
X411.691 Y187.147
X411.665 Y187.155
X411.638 Y187.149
G2 X409.617 Y186.793 I-1.5 J2.598
G1 X163.479 Y230.194
G2 X161. Y233.148 I0.521 J2.954
G1 Y349.704
G3 X160.4 Y350.304 I-0.6 J0.
G1 X159.8
G18 G3 X159.2 Z-3.4 I0. K0.6
G0 Z7.
Y349.104
G1 Z0. F2400.
Z-6.4
G2 X159.8 Z-7. I0.6 K0. F9600.
G1 X160.4
G17 G3 X161. Y349.704 I0. J0.6
G1 Y374.066
G2 X164. Y377.066 I3. J0.
G1 X464.
G2 X467. Y374.066 I0. J-3.
G1 Y363.379
G2 X466.121 Y361.257 I-3. J0.
G1 X466.108 Y361.235
Y361.209
X466.121 Y361.187
X466.143 Y361.174
X466.169
X466.191 Y361.187
G2 X468.313 Y362.066 I2.122 J-2.121
G1 X549.
G2 X552. Y359.066 I0. J-3.
G1 Y278.379
G2 X551.121 Y276.257 I-3. J0.
G1 X551.108 Y276.235
Y276.209
X551.121 Y276.187
X551.143 Y276.174
X551.169
X551.191 Y276.187
G2 X553.313 Y277.066 I2.122 J-2.121
G1 X564.
G2 X567. Y274.066 I0. J-3.
G1 Y74.066
G2 X564. Y71.066 I-3. J0.
G1 X464.
G2 X461. Y74.066 I0. J3.
G1 Y84.753
G2 X461.878 Y86.874 I3. J0.
G1 X461.891 Y86.896
Y86.922
X461.878 Y86.945
X461.856 Y86.958
X461.83
X461.807 Y86.945
G2 X459.686 Y86.066 I-2.121 J2.121
G1 X414.
G2 X411. Y89.066 I0. J3.
G1 Y185.145
G2 X411.701 Y187.073 I3. J0.
G1 X411.713 Y187.098
X411.709 Y187.126
X411.691 Y187.147
X411.665 Y187.155
X411.638 Y187.149
G2 X409.617 Y186.793 I-1.5 J2.598
G1 X163.479 Y230.194
G2 X161. Y233.148 I0.521 J2.954
G1 Y349.704
G3 X160.4 Y350.304 I-0.6 J0.
G1 X159.8
G18 G3 X159.2 Z-6.4 I0. K0.6
G0 Z7.
X105.88 Y324.777
G1 Z0. F2400.
Z-6.4
X105.875 Y324.771 Z-6.494 F9600.
X105.861 Y324.754 Z-6.585
X105.839 Y324.726 Z-6.672
X105.808 Y324.688 Z-6.753
X105.769 Y324.64 Z-6.824
X105.724 Y324.585 Z-6.885
X105.674 Y324.522 Z-6.935
X105.62 Y324.454 Z-6.971
X105.562 Y324.383 Z-6.993
X105.503 Y324.31 Z-7.
X105.127 Y323.842
G17 G3 X105.218 Y322.999 I0.467 J-0.376
G2 X106.337 Y320.662 I-1.881 J-2.337
G1 Y309.975
G2 X105.459 Y307.854 I-3. J0.
G1 X105.446 Y307.832
Y307.806
X105.459 Y307.784
X105.481 Y307.771
X105.507
X105.529 Y307.784
G2 X107.65 Y308.662 I2.121 J-2.122
G1 X153.337
G2 X156.337 Y305.662 I0. J-3.
G1 Y209.583
G2 X155.636 Y207.655 I-3. J0.
G1 X155.624 Y207.63
X155.628 Y207.602
X155.646 Y207.581
X155.672 Y207.573
X155.699 Y207.579
G2 X157.72 Y207.935 I1.5 J-2.598
G1 X403.858 Y164.534
G2 X406.337 Y161.58 I-0.521 J-2.954
G1 Y20.662
G2 X403.337 Y17.662 I-3. J0.
G1 X103.337
G2 X100.337 Y20.662 I0. J3.
G1 Y31.349
G2 X101.215 Y33.47 I3. J0.
G1 X101.228 Y33.492
Y33.518
X101.215 Y33.54
X101.193 Y33.553
X101.167
X101.145 Y33.54
G2 X99.024 Y32.662 I-2.121 J2.122
G1 X18.337
G2 X15.337 Y35.662 I0. J3.
G1 Y116.349
G2 X16.215 Y118.47 I3. J0.
G1 X16.228 Y118.492
Y118.518
X16.215 Y118.54
X16.193 Y118.553
X16.167
X16.145 Y118.54
G2 X14.024 Y117.662 I-2.121 J2.122
G1 X3.337
G2 X0.337 Y120.662 I0. J3.
G1 Y320.662
G2 X3.337 Y323.662 I3. J0.
G1 X103.337
G2 X105.218 Y322.999 I0. J-3.
G3 X106.062 Y323.09 I0.376 J0.467
G1 X106.438 Y323.557
X106.497 Y323.631 Z-6.993
X106.554 Y323.702 Z-6.971
X106.609 Y323.77 Z-6.935
X106.659 Y323.832 Z-6.885
X106.704 Y323.888 Z-6.824
X106.742 Y323.936 Z-6.753
X106.773 Y323.974 Z-6.672
X106.796 Y324.002 Z-6.585
X106.81 Y324.019 Z-6.494
X106.814 Y324.025 Z-6.4
G0 Z7.
X105.88 Y324.777
G1 Z-3. F2400.
Z-9.4
X105.875 Y324.771 Z-9.494 F9600.
X105.861 Y324.754 Z-9.585
X105.839 Y324.726 Z-9.672
X105.808 Y324.688 Z-9.753
X105.769 Y324.64 Z-9.824
X105.724 Y324.585 Z-9.885
X105.674 Y324.522 Z-9.935
X105.62 Y324.454 Z-9.971
X105.562 Y324.383 Z-9.993
X105.503 Y324.31 Z-10.
X105.127 Y323.842
G3 X105.218 Y322.999 I0.467 J-0.376
G2 X106.337 Y320.662 I-1.881 J-2.337
G1 Y309.975
G2 X105.459 Y307.854 I-3. J0.
G1 X105.446 Y307.832
Y307.806
X105.459 Y307.784
X105.481 Y307.771
X105.507
X105.529 Y307.784
G2 X107.65 Y308.662 I2.121 J-2.122
G1 X153.337
G2 X156.337 Y305.662 I0. J-3.
G1 Y209.583
G2 X155.636 Y207.655 I-3. J0.
G1 X155.624 Y207.63
X155.628 Y207.602
X155.646 Y207.581
X155.672 Y207.573
X155.699 Y207.579
G2 X157.72 Y207.935 I1.5 J-2.598
G1 X403.858 Y164.534
G2 X406.337 Y161.58 I-0.521 J-2.954
G1 Y20.662
G2 X403.337 Y17.662 I-3. J0.
G1 X103.337
G2 X100.337 Y20.662 I0. J3.
G1 Y31.349
G2 X101.215 Y33.47 I3. J0.
G1 X101.228 Y33.492
Y33.518
X101.215 Y33.54
X101.193 Y33.553
X101.167
X101.145 Y33.54
G2 X99.024 Y32.662 I-2.121 J2.122
G1 X18.337
G2 X15.337 Y35.662 I0. J3.
G1 Y116.349
G2 X16.215 Y118.47 I3. J0.
G1 X16.228 Y118.492
Y118.518
X16.215 Y118.54
X16.193 Y118.553
X16.167
X16.145 Y118.54
G2 X14.024 Y117.662 I-2.121 J2.122
G1 X3.337
G2 X0.337 Y120.662 I0. J3.
G1 Y320.662
G2 X3.337 Y323.662 I3. J0.
G1 X103.337
G2 X105.218 Y322.999 I0. J-3.
G3 X106.062 Y323.09 I0.376 J0.467
G1 X106.438 Y323.557
X106.497 Y323.631 Z-9.993
X106.554 Y323.702 Z-9.971
X106.609 Y323.77 Z-9.935
X106.659 Y323.832 Z-9.885
X106.704 Y323.888 Z-9.824
X106.742 Y323.936 Z-9.753
X106.773 Y323.974 Z-9.672
X106.796 Y324.002 Z-9.585
X106.81 Y324.019 Z-9.494
X106.814 Y324.025 Z-9.4
G0 Z7.
X159.2 Y349.104
G1 Z-3. F2400.
Z-9.4
G18 G2 X159.8 Z-10. I0.6 K0. F9600.
G1 X160.4
G17 G3 X161. Y349.704 I0. J0.6
G1 Y374.066
G2 X164. Y377.066 I3. J0.
G1 X464.
G2 X467. Y374.066 I0. J-3.
G1 Y363.379
G2 X466.121 Y361.257 I-3. J0.
G1 X466.108 Y361.235
Y361.209
X466.121 Y361.187
X466.143 Y361.174
X466.169
X466.191 Y361.187
G2 X468.313 Y362.066 I2.122 J-2.121
G1 X549.
G2 X552. Y359.066 I0. J-3.
G1 Y278.379
G2 X551.121 Y276.257 I-3. J0.
G1 X551.108 Y276.235
Y276.209
X551.121 Y276.187
X551.143 Y276.174
X551.169
X551.191 Y276.187
G2 X553.313 Y277.066 I2.122 J-2.121
G1 X564.
G2 X567. Y274.066 I0. J-3.
G1 Y74.066
G2 X564. Y71.066 I-3. J0.
G1 X464.
G2 X461. Y74.066 I0. J3.
G1 Y84.753
G2 X461.878 Y86.874 I3. J0.
G1 X461.891 Y86.896
Y86.922
X461.878 Y86.945
X461.856 Y86.958
X461.83
X461.807 Y86.945
G2 X459.686 Y86.066 I-2.121 J2.121
G1 X414.
G2 X411. Y89.066 I0. J3.
G1 Y185.145
G2 X411.701 Y187.073 I3. J0.
G1 X411.713 Y187.098
X411.709 Y187.126
X411.691 Y187.147
X411.665 Y187.155
X411.638 Y187.149
G2 X409.617 Y186.793 I-1.5 J2.598
G1 X163.479 Y230.194
G2 X161. Y233.148 I0.521 J2.954
G1 Y349.704
G3 X160.4 Y350.304 I-0.6 J0.
G1 X159.8
G18 G3 X159.2 Z-9.4 I0. K0.6
G0 Z7.
Y349.104
G1 Z-6. F2400.
Z-12.4
G2 X159.8 Z-13. I0.6 K0. F9600.
G1 X160.4
G17 G3 X161. Y349.704 I0. J0.6
G1 Y374.066
G2 X164. Y377.066 I3. J0.
G1 X208.
Z-12.
X220.
Z-13. F2400.
X308. F9600.
Z-12.
X320.
Z-13. F2400.
X408. F9600.
Z-12.
X420.
Z-13. F2400.
X464. F9600.
G2 X467. Y374.066 I0. J-3.
G1 Y363.379
G2 X466.121 Y361.257 I-3. J0.
G1 X466.108 Y361.235
Y361.209
X466.121 Y361.187
X466.143 Y361.174
X466.169
X466.191 Y361.187
G2 X468.313 Y362.066 I2.122 J-2.121
G1 X549.
G2 X552. Y359.066 I0. J-3.
G1 Y278.379
G2 X551.121 Y276.257 I-3. J0.
G1 X551.108 Y276.235
Y276.209
X551.121 Y276.187
X551.143 Y276.174
X551.169
X551.191 Y276.187
G2 X553.313 Y277.066 I2.122 J-2.121
G1 X564.
G2 X567. Y274.066 I0. J-3.
G1 Y230.066
Z-12.
Y218.066
Z-13. F2400.
Y130.066 F9600.
Z-12.
Y118.066
Z-13. F2400.
Y74.066 F9600.
G2 X564. Y71.066 I-3. J0.
G1 X520.
Z-12.
X508.
Z-13. F2400.
X464. F9600.
G2 X461. Y74.066 I0. J3.
G1 Y84.753
G2 X461.878 Y86.874 I3. J0.
G1 X461.891 Y86.896
Y86.922
X461.878 Y86.945
X461.856 Y86.958
X461.83
X461.807 Y86.945
G2 X459.686 Y86.066 I-2.121 J2.121
G1 X414.
G2 X411. Y89.066 I0. J3.
G1 Y131.105
Z-12.
Y143.105
Z-13. F2400.
Y185.145 F9600.
G2 X411.701 Y187.073 I3. J0.
G1 X411.713 Y187.098
X411.709 Y187.126
X411.691 Y187.147
X411.665 Y187.155
X411.638 Y187.149
G2 X409.617 Y186.793 I-1.5 J2.598
G1 X353.992 Y196.601
Z-12.
X342.174 Y198.685
Z-13. F2400.
X230.922 Y218.301 F9600.
Z-12.
X219.104 Y220.385
Z-13. F2400.
X163.479 Y230.194 F9600.
G2 X161. Y233.148 I0.521 J2.954
G1 Y297.607
Z-12.
Y309.607
Z-13. F2400.
Y349.704 F9600.
G3 X160.4 Y350.304 I-0.6 J0.
G1 X159.8
G18 G3 X159.2 Z-12.4 I0. K0.6
G0 Z7.
X105.88 Y324.777
G1 Z-6. F2400.
Z-12.4
X105.875 Y324.771 Z-12.494 F9600.
X105.861 Y324.754 Z-12.585
X105.839 Y324.726 Z-12.672
X105.808 Y324.688 Z-12.753
X105.769 Y324.64 Z-12.824
X105.724 Y324.585 Z-12.885
X105.674 Y324.522 Z-12.935
X105.62 Y324.454 Z-12.971
X105.562 Y324.383 Z-12.993
X105.503 Y324.31 Z-13.
X105.127 Y323.842
G17 G3 X105.218 Y322.999 I0.467 J-0.376
G2 X106.337 Y320.662 I-1.881 J-2.337
G1 Y309.975
G2 X105.459 Y307.854 I-3. J0.
G1 X105.446 Y307.832
Y307.806
X105.459 Y307.784
X105.481 Y307.771
X105.507
X105.529 Y307.784
G2 X107.65 Y308.662 I2.121 J-2.122
G1 X153.337
G2 X156.337 Y305.662 I0. J-3.
G1 Y263.623
Z-12.
Y251.623
Z-13. F2400.
Y209.583 F9600.
G2 X155.636 Y207.655 I-3. J0.
G1 X155.624 Y207.63
X155.628 Y207.602
X155.646 Y207.581
X155.672 Y207.573
X155.699 Y207.579
G2 X157.72 Y207.935 I1.5 J-2.598
G1 X213.345 Y198.127
Z-12.
X225.163 Y196.043
Z-13. F2400.
X336.415 Y176.426 F9600.
Z-12.
X348.233 Y174.343
Z-13. F2400.
X403.858 Y164.534 F9600.
G2 X406.337 Y161.58 I-0.521 J-2.954
G1 Y97.121
Z-12.
Y85.121
Z-13. F2400.
Y20.662 F9600.
G2 X403.337 Y17.662 I-3. J0.
G1 X359.337
Z-12.
X347.337
Z-13. F2400.
X259.337 F9600.
Z-12.
X247.337
Z-13. F2400.
X159.337 F9600.
Z-12.
X147.337
Z-13. F2400.
X103.337 F9600.
G2 X100.337 Y20.662 I0. J3.
G1 Y31.349
G2 X101.215 Y33.47 I3. J0.
G1 X101.228 Y33.492
Y33.518
X101.215 Y33.54
X101.193 Y33.553
X101.167
X101.145 Y33.54
G2 X99.024 Y32.662 I-2.121 J2.122
G1 X18.337
G2 X15.337 Y35.662 I0. J3.
G1 Y116.349
G2 X16.215 Y118.47 I3. J0.
G1 X16.228 Y118.492
Y118.518
X16.215 Y118.54
X16.193 Y118.553
X16.167
X16.145 Y118.54
G2 X14.024 Y117.662 I-2.121 J2.122
G1 X3.337
G2 X0.337 Y120.662 I0. J3.
G1 Y164.662
Z-12.
Y176.662
Z-13. F2400.
Y264.662 F9600.
Z-12.
Y276.662
Z-13. F2400.
Y320.662 F9600.
G2 X3.337 Y323.662 I3. J0.
G1 X47.337
Z-12.
X59.337
Z-13. F2400.
X103.337 F9600.
G2 X105.218 Y322.999 I0. J-3.
G3 X106.062 Y323.09 I0.376 J0.467
G1 X106.438 Y323.557
X106.497 Y323.631 Z-12.993
X106.554 Y323.702 Z-12.971
X106.609 Y323.77 Z-12.935
X106.659 Y323.832 Z-12.885
X106.704 Y323.888 Z-12.824
X106.742 Y323.936 Z-12.753
X106.773 Y323.974 Z-12.672
X106.796 Y324.002 Z-12.585
X106.81 Y324.019 Z-12.494
X106.814 Y324.025 Z-12.4
G0 Z7.
X105.88 Y324.777
G1 Z-9. F2400.
Z-14.4
X105.875 Y324.771 Z-14.494 F9600.
X105.861 Y324.754 Z-14.585
X105.839 Y324.726 Z-14.672
X105.808 Y324.688 Z-14.753
X105.769 Y324.64 Z-14.824
X105.724 Y324.585 Z-14.885
X105.674 Y324.522 Z-14.935
X105.62 Y324.454 Z-14.971
X105.562 Y324.383 Z-14.993
X105.503 Y324.31 Z-15.
X105.127 Y323.842
G3 X105.218 Y322.999 I0.467 J-0.376
G2 X106.337 Y320.662 I-1.881 J-2.337
G1 Y309.975
G2 X105.459 Y307.854 I-3. J0.
G1 X105.446 Y307.832
Y307.806
X105.459 Y307.784
X105.481 Y307.771
X105.507
X105.529 Y307.784
G2 X107.65 Y308.662 I2.121 J-2.122
G1 X153.337
G2 X156.337 Y305.662 I0. J-3.
G1 Y263.623
Z-12.
Y251.623
Z-15. F2400.
Y209.583 F9600.
G2 X155.636 Y207.655 I-3. J0.
G1 X155.624 Y207.63
X155.628 Y207.602
X155.646 Y207.581
X155.672 Y207.573
X155.699 Y207.579
G2 X157.72 Y207.935 I1.5 J-2.598
G1 X213.345 Y198.127
Z-12.
X225.163 Y196.043
Z-15. F2400.
X336.415 Y176.426 F9600.
Z-12.
X348.233 Y174.343
Z-15. F2400.
X403.858 Y164.534 F9600.
G2 X406.337 Y161.58 I-0.521 J-2.954
G1 Y97.121
Z-12.
Y85.121
Z-15. F2400.
Y20.662 F9600.
G2 X403.337 Y17.662 I-3. J0.
G1 X359.337
Z-12.
X347.337
Z-15. F2400.
X259.337 F9600.
Z-12.
X247.337
Z-15. F2400.
X159.337 F9600.
Z-12.
X147.337
Z-15. F2400.
X103.337 F9600.
G2 X100.337 Y20.662 I0. J3.
G1 Y31.349
G2 X101.215 Y33.47 I3. J0.
G1 X101.228 Y33.492
Y33.518
X101.215 Y33.54
X101.193 Y33.553
X101.167
X101.145 Y33.54
G2 X99.024 Y32.662 I-2.121 J2.122
G1 X18.337
G2 X15.337 Y35.662 I0. J3.
G1 Y116.349
G2 X16.215 Y118.47 I3. J0.
G1 X16.228 Y118.492
Y118.518
X16.215 Y118.54
X16.193 Y118.553
X16.167
X16.145 Y118.54
G2 X14.024 Y117.662 I-2.121 J2.122
G1 X3.337
G2 X0.337 Y120.662 I0. J3.
G1 Y164.662
Z-12.
Y176.662
Z-15. F2400.
Y264.662 F9600.
Z-12.
Y276.662
Z-15. F2400.
Y320.662 F9600.
G2 X3.337 Y323.662 I3. J0.
G1 X47.337
Z-12.
X59.337
Z-15. F2400.
X103.337 F9600.
G2 X105.218 Y322.999 I0. J-3.
G3 X106.062 Y323.09 I0.376 J0.467
G1 X106.438 Y323.557
X106.497 Y323.631 Z-14.993
X106.554 Y323.702 Z-14.971
X106.609 Y323.77 Z-14.935
X106.659 Y323.832 Z-14.885
X106.704 Y323.888 Z-14.824
X106.742 Y323.936 Z-14.753
X106.773 Y323.974 Z-14.672
X106.796 Y324.002 Z-14.585
X106.81 Y324.019 Z-14.494
X106.814 Y324.025 Z-14.4
G0 Z7.
X159.2 Y349.104
G1 Z-9. F2400.
Z-14.4
G18 G2 X159.8 Z-15. I0.6 K0. F9600.
G1 X160.4
G17 G3 X161. Y349.704 I0. J0.6
G1 Y374.066
G2 X164. Y377.066 I3. J0.
G1 X208.
Z-12.
X220.
Z-15. F2400.
X308. F9600.
Z-12.
X320.
Z-15. F2400.
X408. F9600.
Z-12.
X420.
Z-15. F2400.
X464. F9600.
G2 X467. Y374.066 I0. J-3.
G1 Y363.379
G2 X466.121 Y361.257 I-3. J0.
G1 X466.108 Y361.235
Y361.209
X466.121 Y361.187
X466.143 Y361.174
X466.169
X466.191 Y361.187
G2 X468.313 Y362.066 I2.122 J-2.121
G1 X549.
G2 X552. Y359.066 I0. J-3.
G1 Y278.379
G2 X551.121 Y276.257 I-3. J0.
G1 X551.108 Y276.235
Y276.209
X551.121 Y276.187
X551.143 Y276.174
X551.169
X551.191 Y276.187
G2 X553.313 Y277.066 I2.122 J-2.121
G1 X564.
G2 X567. Y274.066 I0. J-3.
G1 Y230.066
Z-12.
Y218.066
Z-15. F2400.
Y130.066 F9600.
Z-12.
Y118.066
Z-15. F2400.
Y74.066 F9600.
G2 X564. Y71.066 I-3. J0.
G1 X520.
Z-12.
X508.
Z-15. F2400.
X464. F9600.
G2 X461. Y74.066 I0. J3.
G1 Y84.753
G2 X461.878 Y86.874 I3. J0.
G1 X461.891 Y86.896
Y86.922
X461.878 Y86.945
X461.856 Y86.958
X461.83
X461.807 Y86.945
G2 X459.686 Y86.066 I-2.121 J2.121
G1 X414.
G2 X411. Y89.066 I0. J3.
G1 Y131.105
Z-12.
Y143.105
Z-15. F2400.
Y185.145 F9600.
G2 X411.701 Y187.073 I3. J0.
G1 X411.713 Y187.098
X411.709 Y187.126
X411.691 Y187.147
X411.665 Y187.155
X411.638 Y187.149
G2 X409.617 Y186.793 I-1.5 J2.598
G1 X353.992 Y196.601
Z-12.
X342.174 Y198.685
Z-15. F2400.
X230.922 Y218.301 F9600.
Z-12.
X219.104 Y220.385
Z-15. F2400.
X163.479 Y230.194 F9600.
G2 X161. Y233.148 I0.521 J2.954
G1 Y297.607
Z-12.
Y309.607
Z-15. F2400.
Y349.704 F9600.
G3 X160.4 Y350.304 I-0.6 J0.
G1 X159.8
G18 G3 X159.2 Z-14.4 I0. K0.6
G0 Z7.
X129.835 Y809.715
G1 Z6. F2400.
Z-0.4
G19 G3 Y810.315 Z-1. J0.6 K0. F9600.
G1 Y810.915
G17 G3 X129.236 Y811.515 I-0.6 J0.
G1 X119.785
G2 X117.664 Y812.394 I0. J3.
G1 X117.641 Y812.407
X117.615
X117.593 Y812.394
X117.58 Y812.371
Y812.345
X117.593 Y812.323
G2 X118.472 Y810.201 I-2.121 J-2.122
G1 Y799.515
G2 X115.472 Y796.515 I-3. J0.
G1 X30.472
G2 X27.472 Y799.515 I0. J3.
G1 Y995.201
G2 X28.351 Y997.322 I3. J0.
G1 X28.364 Y997.345
Y997.371
X28.351 Y997.393
X28.328 Y997.407
X28.302
X28.28 Y997.394
G2 X26.158 Y996.515 I-2.121 J2.121
G1 X15.472
G2 X12.472 Y999.515 I0. J3.
G1 Y1084.51
G2 X15.472 Y1087.51 I3. J0.
G1 X211.158
G2 X213.278 Y1086.633 I0. J-3.
G1 X213.301 Y1086.619
X213.329
X213.352 Y1086.633
X213.366 Y1086.656
Y1086.684
X213.352 Y1086.707
G2 X212.472 Y1088.83 I2.12 J2.123
G1 Y1099.51
G2 X215.472 Y1102.51 I3. J0.
G1 X300.472
G2 X303.472 Y1099.51 I0. J-3.
G1 Y903.828
G2 X302.593 Y901.706 I-3. J0.
G1 X302.58 Y901.684
Y901.658
X302.593 Y901.636
X302.615 Y901.623
X302.641
X302.663 Y901.636
G2 X304.785 Y902.515 I2.122 J-2.121
G1 X315.472
G2 X318.472 Y899.515 I0. J-3.
G1 Y814.515
G2 X315.472 Y811.515 I-3. J0.
G1 X129.236
G3 X128.635 Y810.915 I0. J-0.6
G1 Y810.315
G19 G2 Y809.715 Z-0.4 J0. K0.6
G0 Z7.
X120.386
G1 Z3. F2400.
Z-3.4
G3 Y810.315 Z-4. J0.6 K0. F9600.
G1 Y810.915
G17 G3 X119.786 Y811.515 I-0.6 J0.
G1 X119.785
G2 X117.664 Y812.394 I0. J3.
G1 X117.641 Y812.407
X117.615
X117.593 Y812.394
X117.58 Y812.371
Y812.345
X117.593 Y812.323
G2 X118.472 Y810.201 I-2.121 J-2.122
G1 Y799.515
G2 X115.472 Y796.515 I-3. J0.
G1 X30.472
G2 X27.472 Y799.515 I0. J3.
G1 Y995.201
G2 X28.351 Y997.322 I3. J0.
G1 X28.364 Y997.345
Y997.371
X28.351 Y997.393
X28.328 Y997.407
X28.302
X28.28 Y997.394
G2 X26.158 Y996.515 I-2.121 J2.121
G1 X15.472
G2 X12.472 Y999.515 I0. J3.
G1 Y1084.51
G2 X15.472 Y1087.51 I3. J0.
G1 X211.158
G2 X213.278 Y1086.633 I0. J-3.
G1 X213.301 Y1086.619
X213.329
X213.352 Y1086.633
X213.366 Y1086.656
Y1086.684
X213.352 Y1086.707
G2 X212.472 Y1088.83 I2.12 J2.123
G1 Y1099.51
G2 X215.472 Y1102.51 I3. J0.
G1 X300.472
G2 X303.472 Y1099.51 I0. J-3.
G1 Y903.828
G2 X302.593 Y901.706 I-3. J0.
G1 X302.58 Y901.684
Y901.658
X302.593 Y901.636
X302.615 Y901.623
X302.641
X302.663 Y901.636
G2 X304.785 Y902.515 I2.122 J-2.121
G1 X315.472
G2 X318.472 Y899.515 I0. J-3.
G1 Y814.515
G2 X315.472 Y811.515 I-3. J0.
G1 X119.786
G3 X119.186 Y810.915 I0. J-0.6
G1 Y810.315
G19 G2 Y809.715 Z-3.4 J0. K0.6
G0 Z7.
X316.08 Y791.788
G1 Z3. F2400.
Z-3.4
G2 Y791.188 Z-4. J-0.6 K0. F9600.
G1 Y790.588
G17 G3 X316.68 Y789.988 I0.6 J0.
G2 X319.68 Y786.988 I0. J-3.
G1 Y686.988
G2 X316.68 Y683.988 I-3. J0.
G1 X305.993
G2 X303.872 Y684.866 I0. J3.
G1 X303.85 Y684.879
X303.824
X303.802 Y684.866
X303.789 Y684.844
Y684.818
X303.802 Y684.796
G2 X304.68 Y682.675 I-2.122 J-2.121
G1 Y636.988
G2 X301.68 Y633.988 I-3. J0.
G1 X205.601
G2 X203.672 Y634.69 I0. J3.
G1 X203.647 Y634.701
X203.62 Y634.698
X203.599 Y634.68
X203.59 Y634.654
X203.597 Y634.627
G2 X203.953 Y632.606 I-2.598 J-1.5
G1 X160.552 Y386.467
G2 X157.598 Y383.988 I-2.954 J0.521
G1 X16.68
G2 X13.68 Y386.988 I0. J3.
G1 Y686.988
G2 X16.68 Y689.988 I3. J0.
G1 X27.367
G2 X29.488 Y689.109 I0. J-3.
G1 X29.51 Y689.096
X29.536
X29.559 Y689.109
X29.572 Y689.132
Y689.158
X29.559 Y689.181
G2 X28.68 Y691.302 I2.121 J2.121
G1 Y771.988
G2 X31.68 Y774.988 I3. J0.
G1 X112.367
G2 X114.488 Y774.11 I0. J-3.
G1 X114.51 Y774.097
X114.536
X114.559 Y774.11
X114.572 Y774.132
Y774.158
X114.559 Y774.181
G2 X113.68 Y776.302 I2.121 J2.121
G1 Y786.988
G2 X116.68 Y789.988 I3. J0.
G1 X316.68
G3 X317.28 Y790.588 I0. J0.6
G1 Y791.188
G19 G3 Y791.788 Z-3.4 J0. K0.6
G0 Z7.
X316.08
G1 Z0. F2400.
Z-6.4
G2 Y791.188 Z-7. J-0.6 K0. F9600.
G1 Y790.588
G17 G3 X316.68 Y789.988 I0.6 J0.
G2 X319.68 Y786.988 I0. J-3.
G1 Y686.988
G2 X316.68 Y683.988 I-3. J0.
G1 X305.993
G2 X303.872 Y684.866 I0. J3.
G1 X303.85 Y684.879
X303.824
X303.802 Y684.866
X303.789 Y684.844
Y684.818
X303.802 Y684.796
G2 X304.68 Y682.675 I-2.122 J-2.121
G1 Y636.988
G2 X301.68 Y633.988 I-3. J0.
G1 X205.601
G2 X203.672 Y634.69 I0. J3.
G1 X203.647 Y634.701
X203.62 Y634.698
X203.599 Y634.68
X203.59 Y634.654
X203.597 Y634.627
G2 X203.953 Y632.606 I-2.598 J-1.5
G1 X160.552 Y386.467
G2 X157.598 Y383.988 I-2.954 J0.521
G1 X16.68
G2 X13.68 Y386.988 I0. J3.
G1 Y686.988
G2 X16.68 Y689.988 I3. J0.
G1 X27.367
G2 X29.488 Y689.109 I0. J-3.
G1 X29.51 Y689.096
X29.536
X29.559 Y689.109
X29.572 Y689.132
Y689.158
X29.559 Y689.181
G2 X28.68 Y691.302 I2.121 J2.121
G1 Y771.988
G2 X31.68 Y774.988 I3. J0.
G1 X112.367
G2 X114.488 Y774.11 I0. J-3.
G1 X114.51 Y774.097
X114.536
X114.559 Y774.11
X114.572 Y774.132
Y774.158
X114.559 Y774.181
G2 X113.68 Y776.302 I2.121 J2.121
G1 Y786.988
G2 X116.68 Y789.988 I3. J0.
G1 X316.68
G3 X317.28 Y790.588 I0. J0.6
G1 Y791.188
G19 G3 Y791.788 Z-6.4 J0. K0.6
G0 Z7.
X316.072 Y809.715
G1 Z0. F2400.
Z-6.4
G3 Y810.315 Z-7. J0.6 K0. F9600.
G1 Y810.915
G17 G3 X315.472 Y811.515 I-0.6 J0.
G1 X119.785
G2 X117.664 Y812.394 I0. J3.
G1 X117.641 Y812.407
X117.615
X117.593 Y812.394
X117.58 Y812.371
Y812.345
X117.593 Y812.323
G2 X118.472 Y810.201 I-2.121 J-2.122
G1 Y799.515
G2 X115.472 Y796.515 I-3. J0.
G1 X30.472
G2 X27.472 Y799.515 I0. J3.
G1 Y995.201
G2 X28.351 Y997.322 I3. J0.
G1 X28.364 Y997.345
Y997.371
X28.351 Y997.393
X28.328 Y997.407
X28.302
X28.28 Y997.394
G2 X26.158 Y996.515 I-2.121 J2.121
G1 X15.472
G2 X12.472 Y999.515 I0. J3.
G1 Y1084.51
G2 X15.472 Y1087.51 I3. J0.
G1 X211.158
G2 X213.278 Y1086.633 I0. J-3.
G1 X213.301 Y1086.619
X213.329
X213.352 Y1086.633
X213.366 Y1086.656
Y1086.684
X213.352 Y1086.707
G2 X212.472 Y1088.83 I2.12 J2.123
G1 Y1099.51
G2 X215.472 Y1102.51 I3. J0.
G1 X300.472
G2 X303.472 Y1099.51 I0. J-3.
G1 Y903.828
G2 X302.593 Y901.706 I-3. J0.
G1 X302.58 Y901.684
Y901.658
X302.593 Y901.636
X302.615 Y901.623
X302.641
X302.663 Y901.636
G2 X304.785 Y902.515 I2.122 J-2.121
G1 X315.472
G2 X318.472 Y899.515 I0. J-3.
G1 Y814.515
G2 X315.472 Y811.515 I-3. J0.
G3 X314.872 Y810.915 I0. J-0.6
G1 Y810.315
G19 G2 Y809.715 Z-6.4 J0. K0.6
G0 Z7.
X316.072
G1 Z-3. F2400.
Z-9.4
G3 Y810.315 Z-10. J0.6 K0. F9600.
G1 Y810.915
G17 G3 X315.472 Y811.515 I-0.6 J0.
G1 X119.785
G2 X117.664 Y812.394 I0. J3.
G1 X117.641 Y812.407
X117.615
X117.593 Y812.394
X117.58 Y812.371
Y812.345
X117.593 Y812.323
G2 X118.472 Y810.201 I-2.121 J-2.122
G1 Y799.515
G2 X115.472 Y796.515 I-3. J0.
G1 X30.472
G2 X27.472 Y799.515 I0. J3.
G1 Y995.201
G2 X28.351 Y997.322 I3. J0.
G1 X28.364 Y997.345
Y997.371
X28.351 Y997.393
X28.328 Y997.407
X28.302
X28.28 Y997.394
G2 X26.158 Y996.515 I-2.121 J2.121
G1 X15.472
G2 X12.472 Y999.515 I0. J3.
G1 Y1084.51
G2 X15.472 Y1087.51 I3. J0.
G1 X211.158
G2 X213.278 Y1086.633 I0. J-3.
G1 X213.301 Y1086.619
X213.329
X213.352 Y1086.633
X213.366 Y1086.656
Y1086.684
X213.352 Y1086.707
G2 X212.472 Y1088.83 I2.12 J2.123
G1 Y1099.51
G2 X215.472 Y1102.51 I3. J0.
G1 X300.472
G2 X303.472 Y1099.51 I0. J-3.
G1 Y903.828
G2 X302.593 Y901.706 I-3. J0.
G1 X302.58 Y901.684
Y901.658
X302.593 Y901.636
X302.615 Y901.623
X302.641
X302.663 Y901.636
G2 X304.785 Y902.515 I2.122 J-2.121
G1 X315.472
G2 X318.472 Y899.515 I0. J-3.
G1 Y814.515
G2 X315.472 Y811.515 I-3. J0.
G3 X314.872 Y810.915 I0. J-0.6
G1 Y810.315
G19 G2 Y809.715 Z-9.4 J0. K0.6
G0 Z7.
X316.08 Y791.788
G1 Z-3. F2400.
Z-9.4
G2 Y791.188 Z-10. J-0.6 K0. F9600.
G1 Y790.588
G17 G3 X316.68 Y789.988 I0.6 J0.
G2 X319.68 Y786.988 I0. J-3.
G1 Y686.988
G2 X316.68 Y683.988 I-3. J0.
G1 X305.993
G2 X303.872 Y684.866 I0. J3.
G1 X303.85 Y684.879
X303.824
X303.802 Y684.866
X303.789 Y684.844
Y684.818
X303.802 Y684.796
G2 X304.68 Y682.675 I-2.122 J-2.121
G1 Y636.988
G2 X301.68 Y633.988 I-3. J0.
G1 X205.601
G2 X203.672 Y634.69 I0. J3.
G1 X203.647 Y634.701
X203.62 Y634.698
X203.599 Y634.68
X203.59 Y634.654
X203.597 Y634.627
G2 X203.953 Y632.606 I-2.598 J-1.5
G1 X160.552 Y386.467
G2 X157.598 Y383.988 I-2.954 J0.521
G1 X16.68
G2 X13.68 Y386.988 I0. J3.
G1 Y686.988
G2 X16.68 Y689.988 I3. J0.
G1 X27.367
G2 X29.488 Y689.109 I0. J-3.
G1 X29.51 Y689.096
X29.536
X29.559 Y689.109
X29.572 Y689.132
Y689.158
X29.559 Y689.181
G2 X28.68 Y691.302 I2.121 J2.121
G1 Y771.988
G2 X31.68 Y774.988 I3. J0.
G1 X112.367
G2 X114.488 Y774.11 I0. J-3.
G1 X114.51 Y774.097
X114.536
X114.559 Y774.11
X114.572 Y774.132
Y774.158
X114.559 Y774.181
G2 X113.68 Y776.302 I2.121 J2.121
G1 Y786.988
G2 X116.68 Y789.988 I3. J0.
G1 X316.68
G3 X317.28 Y790.588 I0. J0.6
G1 Y791.188
G19 G3 Y791.788 Z-9.4 J0. K0.6
G0 Z7.
X316.08
G1 Z-6. F2400.
Z-12.4
G2 Y791.188 Z-13. J-0.6 K0. F9600.
G1 Y790.588
G17 G3 X316.68 Y789.988 I0.6 J0.
G2 X319.68 Y786.988 I0. J-3.
G1 Y742.988
Z-12.
Y730.988
Z-13. F2400.
Y686.988 F9600.
G2 X316.68 Y683.988 I-3. J0.
G1 X305.993
G2 X303.872 Y684.866 I0. J3.
G1 X303.85 Y684.879
X303.824
X303.802 Y684.866
X303.789 Y684.844
Y684.818
X303.802 Y684.796
G2 X304.68 Y682.675 I-2.122 J-2.121
G1 Y636.988
G2 X301.68 Y633.988 I-3. J0.
G1 X259.64
Z-12.
X247.64
Z-13. F2400.
X205.601 F9600.
G2 X203.672 Y634.69 I0. J3.
G1 X203.647 Y634.701
X203.62 Y634.698
X203.599 Y634.68
X203.59 Y634.654
X203.597 Y634.627
G2 X203.953 Y632.606 I-2.598 J-1.5
G1 X194.145 Y576.98
Z-12.
X192.061 Y565.162
Z-13. F2400.
X172.445 Y453.911 F9600.
Z-12.
X170.361 Y442.093
Z-13. F2400.
X160.552 Y386.467 F9600.
G2 X157.598 Y383.988 I-2.954 J0.521
G1 X93.139
Z-12.
X81.139
Z-13. F2400.
X16.68 F9600.
G2 X13.68 Y386.988 I0. J3.
G1 Y430.988
Z-12.
Y442.988
Z-13. F2400.
Y530.988 F9600.
Z-12.
Y542.988
Z-13. F2400.
Y630.988 F9600.
Z-12.
Y642.988
Z-13. F2400.
Y686.988 F9600.
G2 X16.68 Y689.988 I3. J0.
G1 X27.367
G2 X29.488 Y689.109 I0. J-3.
G1 X29.51 Y689.096
X29.536
X29.559 Y689.109
X29.572 Y689.132
Y689.158
X29.559 Y689.181
G2 X28.68 Y691.302 I2.121 J2.121
G1 Y771.988
G2 X31.68 Y774.988 I3. J0.
G1 X112.367
G2 X114.488 Y774.11 I0. J-3.
G1 X114.51 Y774.097
X114.536
X114.559 Y774.11
X114.572 Y774.132
Y774.158
X114.559 Y774.181
G2 X113.68 Y776.302 I2.121 J2.121
G1 Y786.988
G2 X116.68 Y789.988 I3. J0.
G1 X160.68
Z-12.
X172.68
Z-13. F2400.
X260.68 F9600.
Z-12.
X272.68
Z-13. F2400.
X316.68 F9600.
G3 X317.28 Y790.588 I0. J0.6
G1 Y791.188
G19 G3 Y791.788 Z-12.4 J0. K0.6
G0 Z7.
X316.072 Y809.715
G1 Z-6. F2400.
Z-12.4
G3 Y810.315 Z-13. J0.6 K0. F9600.
G1 Y810.915
G17 G3 X315.472 Y811.515 I-0.6 J0.
G1 X272.55
Z-12.
X260.55
Z-13. F2400.
X174.707 F9600.
Z-12.
X162.707
Z-13. F2400.
X119.785 F9600.
G2 X117.664 Y812.394 I0. J3.
G1 X117.641 Y812.407
X117.615
X117.593 Y812.394
X117.58 Y812.371
Y812.345
X117.593 Y812.323
G2 X118.472 Y810.201 I-2.121 J-2.122
G1 Y799.515
G2 X115.472 Y796.515 I-3. J0.
G1 X30.472
G2 X27.472 Y799.515 I0. J3.
G1 Y842.436
Z-12.
Y854.436
Z-13. F2400.
Y940.28 F9600.
Z-12.
Y952.28
Z-13. F2400.
Y995.201 F9600.
G2 X28.351 Y997.322 I3. J0.
G1 X28.364 Y997.345
Y997.371
X28.351 Y997.393
X28.328 Y997.407
X28.302
X28.28 Y997.394
G2 X26.158 Y996.515 I-2.121 J2.121
G1 X15.472
G2 X12.472 Y999.515 I0. J3.
G1 Y1084.51
G2 X15.472 Y1087.51 I3. J0.
G1 X58.393
Z-12.
X70.393
Z-13. F2400.
X156.237 F9600.
Z-12.
X168.237
Z-13. F2400.
X211.158 F9600.
G2 X213.278 Y1086.633 I0. J-3.
G1 X213.301 Y1086.619
X213.329
X213.352 Y1086.633
X213.366 Y1086.656
Y1086.684
X213.352 Y1086.707
G2 X212.472 Y1088.83 I2.12 J2.123
G1 Y1099.51
G2 X215.472 Y1102.51 I3. J0.
G1 X300.472
G2 X303.472 Y1099.51 I0. J-3.
G1 Y1056.59
Z-12.
Y1044.59
Z-13. F2400.
Y958.75 F9600.
Z-12.
Y946.75
Z-13. F2400.
Y903.828 F9600.
G2 X302.593 Y901.706 I-3. J0.
G1 X302.58 Y901.684
Y901.658
X302.593 Y901.636
X302.615 Y901.623
X302.641
X302.663 Y901.636
G2 X304.785 Y902.515 I2.122 J-2.121
G1 X315.472
G2 X318.472 Y899.515 I0. J-3.
G1 Y814.515
G2 X315.472 Y811.515 I-3. J0.
G3 X314.872 Y810.915 I0. J-0.6
G1 Y810.315
G19 G2 Y809.715 Z-12.4 J0. K0.6
G0 Z7.
X316.072
G1 Z-9. F2400.
Z-14.4
G3 Y810.315 Z-15. J0.6 K0. F9600.
G1 Y810.915
G17 G3 X315.472 Y811.515 I-0.6 J0.
G1 X272.55
Z-12.
X260.55
Z-15. F2400.
X174.707 F9600.
Z-12.
X162.707
Z-15. F2400.
X119.785 F9600.
G2 X117.664 Y812.394 I0. J3.
G1 X117.641 Y812.407
X117.615
X117.593 Y812.394
X117.58 Y812.371
Y812.345
X117.593 Y812.323
G2 X118.472 Y810.201 I-2.121 J-2.122
G1 Y799.515
G2 X115.472 Y796.515 I-3. J0.
G1 X30.472
G2 X27.472 Y799.515 I0. J3.
G1 Y842.436
Z-12.
Y854.436
Z-15. F2400.
Y940.28 F9600.
Z-12.
Y952.28
Z-15. F2400.
Y995.201 F9600.
G2 X28.351 Y997.322 I3. J0.
G1 X28.364 Y997.345
Y997.371
X28.351 Y997.393
X28.328 Y997.407
X28.302
X28.28 Y997.394
G2 X26.158 Y996.515 I-2.121 J2.121
G1 X15.472
G2 X12.472 Y999.515 I0. J3.
G1 Y1084.51
G2 X15.472 Y1087.51 I3. J0.
G1 X58.393
Z-12.
X70.393
Z-15. F2400.
X156.237 F9600.
Z-12.
X168.237
Z-15. F2400.
X211.158 F9600.
G2 X213.278 Y1086.633 I0. J-3.
G1 X213.301 Y1086.619
X213.329
X213.352 Y1086.633
X213.366 Y1086.656
Y1086.684
X213.352 Y1086.707
G2 X212.472 Y1088.83 I2.12 J2.123
G1 Y1099.51
G2 X215.472 Y1102.51 I3. J0.
G1 X300.472
G2 X303.472 Y1099.51 I0. J-3.
G1 Y1056.59
Z-12.
Y1044.59
Z-15. F2400.
Y958.75 F9600.
Z-12.
Y946.75
Z-15. F2400.
Y903.828 F9600.
G2 X302.593 Y901.706 I-3. J0.
G1 X302.58 Y901.684
Y901.658
X302.593 Y901.636
X302.615 Y901.623
X302.641
X302.663 Y901.636
G2 X304.785 Y902.515 I2.122 J-2.121
G1 X315.472
G2 X318.472 Y899.515 I0. J-3.
G1 Y814.515
G2 X315.472 Y811.515 I-3. J0.
G3 X314.872 Y810.915 I0. J-0.6
G1 Y810.315
G19 G2 Y809.715 Z-14.4 J0. K0.6
G0 Z7.
X316.08 Y791.788
G1 Z-9. F2400.
Z-14.4
G2 Y791.188 Z-15. J-0.6 K0. F9600.
G1 Y790.588
G17 G3 X316.68 Y789.988 I0.6 J0.
G2 X319.68 Y786.988 I0. J-3.
G1 Y742.988
Z-12.
Y730.988
Z-15. F2400.
Y686.988 F9600.
G2 X316.68 Y683.988 I-3. J0.
G1 X305.993
G2 X303.872 Y684.866 I0. J3.
G1 X303.85 Y684.879
X303.824
X303.802 Y684.866
X303.789 Y684.844
Y684.818
X303.802 Y684.796
G2 X304.68 Y682.675 I-2.122 J-2.121
G1 Y636.988
G2 X301.68 Y633.988 I-3. J0.
G1 X259.64
Z-12.
X247.64
Z-15. F2400.
X205.601 F9600.
G2 X203.672 Y634.69 I0. J3.
G1 X203.647 Y634.701
X203.62 Y634.698
X203.599 Y634.68
X203.59 Y634.654
X203.597 Y634.627
G2 X203.953 Y632.606 I-2.598 J-1.5
G1 X194.145 Y576.98
Z-12.
X192.061 Y565.162
Z-15. F2400.
X172.445 Y453.911 F9600.
Z-12.
X170.361 Y442.093
Z-15. F2400.
X160.552 Y386.467 F9600.
G2 X157.598 Y383.988 I-2.954 J0.521
G1 X93.139
Z-12.
X81.139
Z-15. F2400.
X16.68 F9600.
G2 X13.68 Y386.988 I0. J3.
G1 Y430.988
Z-12.
Y442.988
Z-15. F2400.
Y530.988 F9600.
Z-12.
Y542.988
Z-15. F2400.
Y630.988 F9600.
Z-12.
Y642.988
Z-15. F2400.
Y686.988 F9600.
G2 X16.68 Y689.988 I3. J0.
G1 X27.367
G2 X29.488 Y689.109 I0. J-3.
G1 X29.51 Y689.096
X29.536
X29.559 Y689.109
X29.572 Y689.132
Y689.158
X29.559 Y689.181
G2 X28.68 Y691.302 I2.121 J2.121
G1 Y771.988
G2 X31.68 Y774.988 I3. J0.
G1 X112.367
G2 X114.488 Y774.11 I0. J-3.
G1 X114.51 Y774.097
X114.536
X114.559 Y774.11
X114.572 Y774.132
Y774.158
X114.559 Y774.181
G2 X113.68 Y776.302 I2.121 J2.121
G1 Y786.988
G2 X116.68 Y789.988 I3. J0.
G1 X160.68
Z-12.
X172.68
Z-15. F2400.
X260.68 F9600.
Z-12.
X272.68
Z-15. F2400.
X316.68 F9600.
G3 X317.28 Y790.588 I0. J0.6
G1 Y791.188
G19 G3 Y791.788 Z-14.4 J0. K0.6
G0 Z7.
X210.672 Y903.228
G1 Z6. F2400.
Z-0.4
G18 G2 X211.272 Z-1. I0.6 K0. F9600.
G1 X211.872
G17 G3 X212.472 Y903.828 I0. J0.6
G1 Y995.201
G2 X213.351 Y997.322 I3. J0.
G1 X213.364 Y997.345
Y997.371
X213.351 Y997.394
X213.328 Y997.407
X213.302
X213.279 Y997.394
G2 X211.158 Y996.515 I-2.121 J2.121
G1 X119.785
G2 X117.664 Y997.394 I0. J3.
G1 X117.641 Y997.407
X117.615
X117.593 Y997.394
X117.58 Y997.371
Y997.345
X117.593 Y997.323
G2 X118.472 Y995.201 I-2.121 J-2.122
G1 Y903.828
G2 X117.593 Y901.706 I-3. J0.
G1 X117.58 Y901.684
Y901.658
X117.593 Y901.636
X117.615 Y901.623
X117.641
X117.663 Y901.636
G2 X119.785 Y902.515 I2.122 J-2.121
G1 X211.158
G2 X213.28 Y901.636 I0. J-3.
G1 X213.302 Y901.623
X213.328
X213.351 Y901.636
X213.364 Y901.658
Y901.684
X213.351 Y901.707
G2 X212.472 Y903.828 I2.121 J2.121
G3 X211.872 Y904.428 I-0.6 J0.
G1 X211.272
G18 G3 X210.672 Z-0.4 I0. K0.6
G0 Z7.
Y903.228
G1 Z3. F2400.
Z-3.4
G2 X211.272 Z-4. I0.6 K0. F9600.
G1 X211.872
G17 G3 X212.472 Y903.828 I0. J0.6
G1 Y995.201
G2 X213.351 Y997.322 I3. J0.
G1 X213.364 Y997.345
Y997.371
X213.351 Y997.394
X213.328 Y997.407
X213.302
X213.279 Y997.394
G2 X211.158 Y996.515 I-2.121 J2.121
G1 X119.785
G2 X117.664 Y997.394 I0. J3.
G1 X117.641 Y997.407
X117.615
X117.593 Y997.394
X117.58 Y997.371
Y997.345
X117.593 Y997.323
G2 X118.472 Y995.201 I-2.121 J-2.122
G1 Y903.828
G2 X117.593 Y901.706 I-3. J0.
G1 X117.58 Y901.684
Y901.658
X117.593 Y901.636
X117.615 Y901.623
X117.641
X117.663 Y901.636
G2 X119.785 Y902.515 I2.122 J-2.121
G1 X211.158
G2 X213.28 Y901.636 I0. J-3.
G1 X213.302 Y901.623
X213.328
X213.351 Y901.636
X213.364 Y901.658
Y901.684
X213.351 Y901.707
G2 X212.472 Y903.828 I2.121 J2.121
G3 X211.872 Y904.428 I-0.6 J0.
G1 X211.272
G18 G3 X210.672 Z-3.4 I0. K0.6
G0 Z7.
Y903.228
G1 Z0. F2400.
Z-6.4
G2 X211.272 Z-7. I0.6 K0. F9600.
G1 X211.872
G17 G3 X212.472 Y903.828 I0. J0.6
G1 Y995.201
G2 X213.351 Y997.322 I3. J0.
G1 X213.364 Y997.345
Y997.371
X213.351 Y997.394
X213.328 Y997.407
X213.302
X213.279 Y997.394
G2 X211.158 Y996.515 I-2.121 J2.121
G1 X119.785
G2 X117.664 Y997.394 I0. J3.
G1 X117.641 Y997.407
X117.615
X117.593 Y997.394
X117.58 Y997.371
Y997.345
X117.593 Y997.323
G2 X118.472 Y995.201 I-2.121 J-2.122
G1 Y903.828
G2 X117.593 Y901.706 I-3. J0.
G1 X117.58 Y901.684
Y901.658
X117.593 Y901.636
X117.615 Y901.623
X117.641
X117.663 Y901.636
G2 X119.785 Y902.515 I2.122 J-2.121
G1 X211.158
G2 X213.28 Y901.636 I0. J-3.
G1 X213.302 Y901.623
X213.328
X213.351 Y901.636
X213.364 Y901.658
Y901.684
X213.351 Y901.707
G2 X212.472 Y903.828 I2.121 J2.121
G3 X211.872 Y904.428 I-0.6 J0.
G1 X211.272
G18 G3 X210.672 Z-6.4 I0. K0.6
G0 Z7.
Y903.228
G1 Z-3. F2400.
Z-9.4
G2 X211.272 Z-10. I0.6 K0. F9600.
G1 X211.872
G17 G3 X212.472 Y903.828 I0. J0.6
G1 Y995.201
G2 X213.351 Y997.322 I3. J0.
G1 X213.364 Y997.345
Y997.371
X213.351 Y997.394
X213.328 Y997.407
X213.302
X213.279 Y997.394
G2 X211.158 Y996.515 I-2.121 J2.121
G1 X119.785
G2 X117.664 Y997.394 I0. J3.
G1 X117.641 Y997.407
X117.615
X117.593 Y997.394
X117.58 Y997.371
Y997.345
X117.593 Y997.323
G2 X118.472 Y995.201 I-2.121 J-2.122
G1 Y903.828
G2 X117.593 Y901.706 I-3. J0.
G1 X117.58 Y901.684
Y901.658
X117.593 Y901.636
X117.615 Y901.623
X117.641
X117.663 Y901.636
G2 X119.785 Y902.515 I2.122 J-2.121
G1 X211.158
G2 X213.28 Y901.636 I0. J-3.
G1 X213.302 Y901.623
X213.328
X213.351 Y901.636
X213.364 Y901.658
Y901.684
X213.351 Y901.707
G2 X212.472 Y903.828 I2.121 J2.121
G3 X211.872 Y904.428 I-0.6 J0.
G1 X211.272
G18 G3 X210.672 Z-9.4 I0. K0.6
G0 Z7.
Y903.228
G1 Z-6. F2400.
Z-12.4
G2 X211.272 Z-13. I0.6 K0. F9600.
G1 X211.872
G17 G3 X212.472 Y903.828 I0. J0.6
G1 Y943.515
Z-12.
Y955.515
Z-13. F2400.
Y995.201 F9600.
G2 X213.351 Y997.322 I3. J0.
G1 X213.364 Y997.345
Y997.371
X213.351 Y997.394
X213.328 Y997.407
X213.302
X213.279 Y997.394
G2 X211.158 Y996.515 I-2.121 J2.121
G1 X171.472
Z-12.
X159.472
Z-13. F2400.
X119.785 F9600.
G2 X117.664 Y997.394 I0. J3.
G1 X117.641 Y997.407
X117.615
X117.593 Y997.394
X117.58 Y997.371
Y997.345
X117.593 Y997.323
G2 X118.472 Y995.201 I-2.121 J-2.122
G1 Y955.515
Z-12.
Y943.515
Z-13. F2400.
Y903.828 F9600.
G2 X117.593 Y901.706 I-3. J0.
G1 X117.58 Y901.684
Y901.658
X117.593 Y901.636
X117.615 Y901.623
X117.641
X117.663 Y901.636
G2 X119.785 Y902.515 I2.122 J-2.121
G1 X159.472
Z-12.
X171.472
Z-13. F2400.
X211.158 F9600.
G2 X213.28 Y901.636 I0. J-3.
G1 X213.302 Y901.623
X213.328
X213.351 Y901.636
X213.364 Y901.658
Y901.684
X213.351 Y901.707
G2 X212.472 Y903.828 I2.121 J2.121
G3 X211.872 Y904.428 I-0.6 J0.
G1 X211.272
G18 G3 X210.672 Z-12.4 I0. K0.6
G0 Z7.
Y903.228
G1 Z-9. F2400.
Z-14.4
G2 X211.272 Z-15. I0.6 K0. F9600.
G1 X211.872
G17 G3 X212.472 Y903.828 I0. J0.6
G1 Y943.515
Z-12.
Y955.515
Z-15. F2400.
Y995.201 F9600.
G2 X213.351 Y997.322 I3. J0.
G1 X213.364 Y997.345
Y997.371
X213.351 Y997.394
X213.328 Y997.407
X213.302
X213.279 Y997.394
G2 X211.158 Y996.515 I-2.121 J2.121
G1 X171.472
Z-12.
X159.472
Z-15. F2400.
X119.785 F9600.
G2 X117.664 Y997.394 I0. J3.
G1 X117.641 Y997.407
X117.615
X117.593 Y997.394
X117.58 Y997.371
Y997.345
X117.593 Y997.323
G2 X118.472 Y995.201 I-2.121 J-2.122
G1 Y955.515
Z-12.
Y943.515
Z-15. F2400.
Y903.828 F9600.
G2 X117.593 Y901.706 I-3. J0.
G1 X117.58 Y901.684
Y901.658
X117.593 Y901.636
X117.615 Y901.623
X117.641
X117.663 Y901.636
G2 X119.785 Y902.515 I2.122 J-2.121
G1 X159.472
Z-12.
X171.472
Z-15. F2400.
X211.158 F9600.
G2 X213.28 Y901.636 I0. J-3.
G1 X213.302 Y901.623
X213.328
X213.351 Y901.636
X213.364 Y901.658
Y901.684
X213.351 Y901.707
G2 X212.472 Y903.828 I2.121 J2.121
G3 X211.872 Y904.428 I-0.6 J0.
G1 X211.272
G18 G3 X210.672 Z-14.4 I0. K0.6
G0 Z17.
G17

M9
G28 G91 Z0.
G90
G28 G91 X0. Y0.
G90
M30
